0.1_clinic.knit
…
all.samples$BTC_ID <- toupper(all.samples$BTC_ID)
all.samples$BTC_ID[all.samples$BTC_ID == 'BTC_00017'] <- 'BTC_0017'
all.samples$BTC_ID[all.samples$BTC_ID == '(BTC_0029)'] <- 'BTC_0029'

all.samples$BTC_ID[all.samples$Study_ID == 'LBR-0074'] <- 'BTC_0117'
all.samples$BTC_ID[all.samples$Study_ID == 'LBR-0033'] <- 'BTC_0113'
all.samples$BTC_ID[all.samples$Study_ID == 'LBR-0383'] <- 'BTC_0197'
all.samples$BTC_ID[all.samples$Study_ID == 'LBR-0410'] <- 'BTC_0160'
all.samples$BTC_ID[all.samples$Study_ID == 'LBR-0368'] <- 'HBTHCC_2168'

## remove second samples where donor has two
all.samples %>% group_by(BTC_ID) %>% tally() %>% arrange(BTC_ID) %>% filter(n > 1)

## # A tibble: 21 × 2
##    BTC_ID       n
##    <chr>    <int>
##  1 BTC_0014     2
##  2 BTC_0015     2
##  3 BTC_0017     2
##  4 BTC_0025     2
##  5 BTC_0028     2
##  6 BTC_0029     3
##  7 BTC_0033     3
##  8 BTC_0034     2
##  9 BTC_0049     2
## 10 BTC_0064     2
## # ℹ 11 more rows
…
