3.1_run_fishhook.knit
…
ecdna.genes.tally %>% arrange(desc(n)) %>% filter(Chr == 12)

## # A tibble: 54 × 9
##    thi.gene_list     n ensid             Chr  Start    End strand biotype Length
##    <chr>         <int> <chr>           <int>  <int>  <int> <chr>  <chr>    <int>
##  1 CPM               4 ENSG00000135678    12 6.88e7 6.90e7 -      protei… 129374
##  2 DYRK2             4 ENSG00000127334    12 6.76e7 6.77e7 +      protei…  17069
##  3 IFNG              4 ENSG00000111537    12 6.82e7 6.82e7 -      protei…   4973
##  4 IFNG-AS1          4 ENSG00000255733    12 6.80e7 6.82e7 +      lncRNA  245242
##  5 IL22              4 ENSG00000127318    12 6.82e7 6.83e7 -      protei…   5363
##  6 IL26              4 ENSG00000111536    12 6.82e7 6.82e7 -      protei…  24462
##  7 MDM1              4 ENSG00000111554    12 6.83e7 6.83e7 -      protei…  59939
##  8 MDM2              4 ENSG00000135679    12 6.88e7 6.89e7 +      protei…  42510
##  9 NUP107            4 ENSG00000111581    12 6.87e7 6.87e7 +      protei…  58859
## 10 RAP1B             4 ENSG00000127314    12 6.86e7 6.87e7 +      protei…  61047
## # ℹ 44 more rows

ecdna.genes.tally %>% arrange(desc(n)) %>% filter(Chr == 7)

## # A tibble: 47 × 9
##    thi.gene_list     n ensid             Chr  Start    End strand biotype Length
##    <chr>         <int> <chr>           <int>  <int>  <int> <chr>  <chr>    <int>
##  1 CDK6              3 ENSG00000105810     7 9.26e7 9.28e7 -      protei… 231653
##  2 CDK6-AS1          3 ENSG00000237819     7 9.28e7 9.29e7 +      lncRNA   80705
##  3 FAM133B           3 ENSG00000234545     7 9.26e7 9.26e7 -      protei…  29636
##  4 AKAP9             2 ENSG00000127914     7 9.19e7 9.21e7 +      protei… 169812
##  5 ANKIB1            2 ENSG00000001629     7 9.22e7 9.24e7 +      protei… 155410
##  6 CYP51A1           2 ENSG00000001630     7 9.21e7 9.21e7 -      protei…  22651
##  7 CYP51A1-AS1       2 ENSG00000188693     7 9.21e7 9.22e7 +      lncRNA   46122
##  8 ERVW-1            2 ENSG00000242950     7 9.25e7 9.25e7 -      protei…   9607
##  9 GATAD1            2 ENSG00000157259     7 9.24e7 9.25e7 +      protei…  12594
## 10 KRIT1             2 ENSG00000001631     7 9.22e7 9.22e7 -      protei…  47198
## # ℹ 37 more rows
…
